<?xml version="1.0" standalone="no"?>
<!DOCTYPE svg PUBLIC "-//W3C//DTD SVG 1.1//EN" "http://www.w3.org/Graphics/SVG/1.1/DTD/svg11.dtd" >
<svg xmlns="http://www.w3.org/2000/svg">
<metadata>Generated by IcoMoon</metadata>
<defs>
<font id="icomoon" horiz-adv-x="1024">
<font-face units-per-em="1024" ascent="960" descent="-64" />
<missing-glyph horiz-adv-x="1024" />
<glyph unicode="&#x20;" horiz-adv-x="512" d="" />
<glyph unicode="&#xe600;" glyph-name="arrow487" d="M782.857 397.307l-440.304-440.29c-28.009-28.022-73.42-28.022-101.415 0-27.997 27.997-27.997 73.406 0 101.401l389.601 389.589-389.589 389.576c-27.997 28.009-27.997 73.413 0 101.41 27.997 28.009 73.406 28.009 101.415 0l440.304-440.297c13.999-14.005 20.99-32.342 20.99-50.687 0-18.354-7.005-36.704-21.001-50.703z" />
<glyph unicode="&#xe601;" glyph-name="clock104" d="M983.127 647.31c-53.988 125.867-145.729 217.406-272.647 271.536-63.434 27.054-129.892 40.873-199.322 40.873-69.418 0-135.386-13.688-198.75-40.873-125.867-53.986-218.015-145.467-272.098-271.536-27.101-63.16-40.311-129.33-40.311-198.748 0-69.431 13.21-136.15 40.311-199.324 54.083-126.069 146.243-218.099 272.098-272.098 63.376-27.185 129.33-40.86 198.75-40.86s135.887 13.819 199.312 40.86c126.917 54.131 218.659 146.243 272.658 272.098 27.183 63.376 40.871 129.892 40.871 199.324 0 69.418-13.677 135.374-40.873 198.748zM901.394 222.364c-40.192-68.928-95.254-123.61-164.601-164.039-68.928-40.192-144.451-60.461-225.623-60.461-61.022 0-119.249 11.753-174.682 35.832-55.432 24.067-103.292 55.708-143.328 95.732-40.036 40.036-71.903 88.364-95.731 143.89-23.758 55.324-35.271 114.209-35.271 175.243 0 81.184 19.946 156.324 59.912 225.061 40.108 68.988 95.182 123.728 164.039 164.041 68.846 40.311 143.879 60.473 225.049 60.473 81.184 0 156.694-20.281 225.623-60.473 69.348-40.431 124.291-95.17 164.601-164.039 40.311-68.857 60.461-143.879 60.461-225.061 0-81.185-20.018-156.838-60.449-226.199zM543.634 453.040v290.015c0 17.354-15.121 31.352-32.477 31.352-16.232 0-30.792-13.998-30.792-31.352v-294.492c0-0.562 1.123-2.808 1.123-4.481-1.123-10.079 1.685-18.477 8.398-25.202l167.409-167.397c11.202-11.202 31.913-11.202 43.107 0 12.874 12.875 12.027 31.557 0 43.669l-156.767 157.888z" />
<glyph unicode="&#xe602;" glyph-name="clock125" d="M615.437 27.319c-8.444-2.104-17.053-3.973-25.598-5.547-22.338-4.154-37.106-25.637-32.974-47.995 2.041-10.999 8.288-20.161 16.769-26.141 8.741-6.152 19.866-8.93 31.202-6.822 10.176 1.889 20.432 4.11 30.495 6.621 22.058 5.49 35.497 27.836 29.994 49.884-5.49 22.067-27.817 35.494-49.888 30zM919.854 579.088c2.884-8.69 8.389-15.785 15.342-20.687 10.31-7.262 23.802-9.705 36.676-5.448 21.585 7.167 33.28 30.443 26.139 52.017-3.253 9.835-6.863 19.701-10.709 29.307-8.444 21.11-32.389 31.387-53.509 22.943-21.099-8.439-31.38-32.391-22.93-53.507 3.231-8.074 6.258-16.362 8.99-24.625zM749.202 86.093c-7.262-4.794-14.757-9.434-22.307-13.782-19.699-11.363-26.445-36.542-15.087-56.232 3.084-5.356 7.191-9.734 11.922-13.080 12.699-8.935 29.945-10.273 44.304-2.001 8.977 5.177 17.902 10.685 26.551 16.403 18.961 12.527 24.18 38.068 11.647 57.038-12.531 18.977-38.061 24.189-57.029 11.653zM1023.608 464.115c-0.896 22.721-20.033 40.405-42.761 39.518-22.699-0.896-40.396-20.040-39.505-42.752 0.341-8.684 0.429-17.497 0.229-26.172-0.319-14.248 6.65-26.949 17.48-34.583 6.452-4.543 14.281-7.293 22.771-7.486 22.721-0.504 41.55 17.517 42.054 40.249 0.227 10.365 0.141 20.867-0.269 31.226zM913.136 194.386c-18.219 13.669-43.995 9.958-57.641-8.228-5.226-6.965-10.729-13.843-16.364-20.467-14.726-17.301-12.646-43.289 4.656-58.026 0.986-0.836 1.983-1.605 3.018-2.327 17.2-12.126 41.105-9.34 55.012 6.98 6.729 7.902 13.289 16.119 19.533 24.438 13.647 18.186 9.954 43.98-8.215 57.63zM973.647 343.194c-21.693 6.802-44.794-5.274-51.592-26.967-2.602-8.288-5.485-16.615-8.598-24.77-6.835-17.953-0.286-37.707 14.726-48.292 2.754-1.935 5.787-3.575 9.082-4.821 21.239-8.105 45.023 2.551 53.119 23.799 3.696 9.696 7.125 19.604 10.227 29.457 6.791 21.697-5.276 44.792-26.965 51.594zM435.836 21.402c-36.804 6.608-72.109 17.861-105.587 33.555-0.396 0.207-0.751 0.442-1.167 0.632-7.889 3.713-15.765 7.691-23.399 11.847-0.026 0.031-0.075 0.051-0.117 0.068-14.006 7.713-27.676 16.247-40.956 25.596-193.644 136.409-240.204 404.929-103.787 598.571 29.663 42.091 65.561 77.207 105.581 105.039 0.493 0.343 0.986 0.685 1.475 1.030 141.025 97.17 332.514 103.719 482.26 3.868l-32.162-46.47c-8.941-12.934-3.44-22.36 12.212-20.951l139.704 12.507c15.673 1.409 25.045 14.966 20.83 30.101l-37.515 135.167c-4.2 15.153-14.953 16.967-23.903 4.035l-32.237-46.58c-109.893 73.769-241.699 101.898-372.523 79.213-13.176-2.28-26.168-5.072-38.981-8.321-0.099-0.018-0.178-0.029-0.258-0.046-0.495-0.121-0.997-0.282-1.479-0.416-112.812-28.97-211.239-94.766-281.472-188.643-0.592-0.702-1.202-1.389-1.761-2.153-2.335-3.146-4.653-6.364-6.923-9.582-3.711-5.274-7.37-10.68-10.87-16.086-0.438-0.652-0.773-1.314-1.156-1.972-57.958-89.811-85.913-193.642-81.119-299.348 0.011-0.348-0.009-0.698 0-1.054 0.464-10.326 1.283-20.795 2.395-31.101 0.059-0.665 0.207-1.294 0.319-1.959 1.149-10.363 2.591-20.751 4.398-31.136 18.367-105.962 68.352-201.311 143.252-275.503 0.174-0.174 0.354-0.363 0.53-0.544 0.062-0.068 0.13-0.103 0.189-0.167 20.123-19.848 42.012-38.206 65.58-54.806 61.678-43.461 130.357-72.188 204.115-85.424 22.38-4.022 43.758 10.876 47.773 33.245 4.013 22.384-10.872 43.78-33.245 47.788zM486.739 776.864c-18.409 0-33.32-14.924-33.32-33.306v-331.825l303.48-156.882c4.884-2.529 10.115-3.72 15.261-3.72 12.054 0 23.696 6.564 29.615 18.017 8.442 16.346 2.054 36.428-14.292 44.869l-267.462 138.275v291.265c-0.002 18.382-14.896 33.306-33.282 33.306z" />
<glyph unicode="&#xe603;" glyph-name="computermonitor14" d="M944.144 889.922h-864.288c-44.031 0-79.856-35.825-79.856-79.856v-604.445c0-44.031 35.825-79.856 79.856-79.856h401.976v-59.349h-105.655v-60.336h271.641v60.336h-105.651v59.349h401.976c44.031 0 79.856 35.825 79.856 79.856v604.445c0 44.034-35.825 79.856-79.856 79.856zM79.856 829.587h864.288c10.765 0 19.52-8.756 19.52-19.52v-481.009h-903.329v481.009c0 10.768 8.756 19.52 19.52 19.52zM944.144 186.105h-864.288c-10.765 0-19.52 8.756-19.52 19.52v63.097h903.329v-63.097c0-10.765-8.756-19.52-19.52-19.52z" />
<glyph unicode="&#xe604;" glyph-name="envelope4" d="M98.284 602.281c12.953-9.141 52-36.289 117.142-81.429 65.144-45.141 115.048-79.898 149.715-104.274 3.809-2.672 11.901-8.48 24.28-17.433 12.381-8.959 22.669-16.198 30.855-21.72 8.192-5.52 18.095-11.713 29.72-18.568 11.62-6.849 22.574-12.001 32.86-15.411 10.288-3.439 19.81-5.142 28.571-5.142h1.151c8.76 0 18.287 1.705 28.575 5.142 10.282 3.41 21.246 8.568 32.856 15.411 11.616 6.863 21.52 13.050 29.712 18.568 8.192 5.522 18.471 12.761 30.857 21.72 12.377 8.961 20.479 14.761 24.288 17.433 35.042 24.376 124.193 86.283 267.425 185.716 27.808 19.42 51.041 42.853 69.705 70.283 18.678 27.418 28.006 56.181 28.006 86.273 0 25.146-9.053 46.672-27.15 64.575-18.095 17.907-39.527 26.856-64.281 26.856h-841.144c-29.331 0-51.904-9.903-67.713-29.71-15.808-19.81-23.711-44.573-23.711-74.284 0-24 10.48-50.007 31.429-78.005 20.947-28 43.24-50.003 66.855-66zM966.85 541.144c-124.939-84.564-219.809-150.284-284.562-197.146-21.714-15.994-39.329-28.479-52.857-37.425-13.528-8.953-31.519-18.095-53.999-27.424-22.472-9.343-43.416-14-62.848-14h-1.157c-19.428 0-40.383 4.657-62.856 14-22.472 9.329-40.476 18.471-53.999 27.424-13.52 8.947-31.141 21.432-52.853 37.425-51.432 37.712-146.097 103.436-283.999 197.146-21.72 14.467-40.958 31.049-57.72 49.712v-453.701c0-25.158 8.949-46.672 26.856-64.577 17.903-17.911 39.431-26.864 64.575-26.864h841.146c25.138 0 46.664 8.953 64.569 26.864 17.911 17.911 26.856 39.417 26.856 64.577v453.701c-16.384-18.277-35.426-34.859-57.152-49.712z" />
<glyph unicode="&#xe605;" glyph-name="letter121" d="M945.185 99.906h-866.364c-43.462 0-78.821 35.359-78.821 78.821v538.545c0 43.462 35.359 78.821 78.821 78.821h866.364c43.456 0 78.815-35.359 78.815-78.821v-538.545c0-43.462-35.359-78.821-78.815-78.821zM42.821 146.574c8.847-9.898 21.713-16.144 36-16.144h866.364c14.19 0 26.964 6.155 35.805 15.924l-386.35 283.521-73.686-53.787c-5.349-3.908-12.609-3.914-17.97-0.018l-74.083 53.817-386.081-283.313zM620.505 448.76l372.838-273.593c0.092 1.172 0.128 2.363 0.128 3.56v538.545c0 1.215-0.049 2.424-0.134 3.621l-372.832-272.133zM30.572 719.263c-0.031-0.659-0.043-1.325-0.043-1.991v-538.545c0-1.087 0.037-2.161 0.11-3.218l372.331 273.22-372.398 270.534zM42.106 748.62l469.817-341.313 469.036 342.357c-8.841 9.763-21.609 15.9-35.78 15.9h-866.358c-14.679 0-27.843-6.582-36.715-16.944z" />
<glyph unicode="&#xe606;" glyph-name="loudspeaker34" d="M940.374 845.246c-9.918 0-19.755-1.778-29.188-5.292l-624.876-231.71h-167.617c-18.846 0-34.158-15.311-34.158-34.158v-19.392c-47.873-8.12-84.535-49.63-84.535-99.786s36.662-91.646 84.535-99.766v-19.392c0-18.846 15.311-34.158 34.158-34.158h69.891v-167.778c0-45.813 37.268-83.061 83.061-83.061h62.861c11.15 0 20.2 9.029 20.2 20.2s-9.049 20.2-20.2 20.2h-62.861c-23.533 0-42.662 19.129-42.662 42.662v167.778h57.327l624.855-231.71c9.453-3.515 19.27-5.292 29.188-5.292 46.116 0 83.647 37.571 83.647 83.768v613.099c0 46.197-37.511 83.788-83.626 83.788zM40.399 454.908c0 27.795 18.664 51.347 44.136 58.7v-117.4c-25.472 7.373-44.136 30.905-44.136 58.7zM983.601 148.379c0-23.916-19.392-43.369-43.247-43.369-5.111 0-10.221 0.929-15.15 2.767l-628.249 232.942c-2.242 0.828-4.626 1.252-7.029 1.252h-164.991v225.872h144.791v-154.406c0-11.17 9.049-20.2 20.2-20.2s20.2 9.029 20.2 20.2v160.547l615.079 228.094c4.929 1.818 10.039 2.767 15.15 2.767 23.856 0 43.247-19.452 43.247-43.369v-613.099z" />
<glyph unicode="&#xe607;" glyph-name="monthly5" d="M1008.485 43.551c0-59.392-48.159-107.551-107.551-107.551h-777.868c-59.392 0-107.551 48.159-107.551 107.551v684.777c0 59.392 48.159 107.551 107.551 107.551h777.868c59.392 0 107.551-48.159 107.551-107.551v-684.777zM946.424 728.328c0 25.119-20.356 45.49-45.49 45.49h-777.868c-25.119 0-45.49-20.371-45.49-45.49v-684.777c0-25.135 20.371-45.49 45.49-45.49h777.868c25.135 0 45.49 20.356 45.49 45.49v684.777zM839.432 44.606h-97.901c-8.58 0-15.515 6.935-15.515 15.515s6.935 15.515 15.515 15.515h97.901c15.36 0 26.221 2.638 26.221 36.6 0 8.58 8.533 15.515 17.113 15.515 8.595 0 17.129-6.935 17.129-15.515v-5.57c0-0.915-1.66-1.784-1.815-2.669-2.327-39.424-23.056-59.392-58.647-59.392zM882.424 162.351c-4.205 0-8.083 1.722-11.016 4.515-2.808 2.917-4.499 6.796-4.499 11 0 4.080 1.691 8.083 4.499 11.031 5.741 5.725 16.136 5.725 22.032 0 2.808-2.917 4.499-6.951 4.499-11.031 0-4.034-1.691-8.083-4.499-11-2.948-2.777-6.982-4.515-11.016-4.515zM245.062 401.455h-15.515c-8.58 0-15.515 6.935-15.515 15.515s6.935 15.515 15.515 15.515h15.515c8.58 0 15.515-6.935 15.515-15.515s-6.935-15.515-15.515-15.515zM353.668 401.455h-15.515c-8.58 0-15.515 6.935-15.515 15.515s6.935 15.515 15.515 15.515h15.515c8.58 0 15.515-6.935 15.515-15.515s-6.935-15.515-15.515-15.515zM462.274 401.455h-15.515c-8.58 0-15.515 6.935-15.515 15.515s6.935 15.515 15.515 15.515h15.515c8.58 0 15.515-6.935 15.515-15.515s-6.935-15.515-15.515-15.515zM555.365 401.455h-15.515c-8.58 0-15.515 6.935-15.515 15.515s6.935 15.515 15.515 15.515h15.515c8.58 0 15.515-6.935 15.515-15.515s-6.935-15.515-15.515-15.515zM663.971 401.455h-15.515c-8.58 0-15.515 6.935-15.515 15.515s6.935 15.515 15.515 15.515h15.515c8.58 0 15.515-6.935 15.515-15.515s-6.935-15.515-15.515-15.515zM772.577 401.455h-15.515c-8.58 0-15.515 6.935-15.515 15.515s6.935 15.515 15.515 15.515h15.515c8.58 0 15.515-6.935 15.515-15.515s-6.935-15.515-15.515-15.515zM245.062 308.364h-15.515c-8.58 0-15.515 6.935-15.515 15.515s6.935 15.515 15.515 15.515h15.515c8.58 0 15.515-6.935 15.515-15.515s-6.935-15.515-15.515-15.515zM353.668 308.364h-15.515c-8.58 0-15.515 6.935-15.515 15.515s6.935 15.515 15.515 15.515h15.515c8.58 0 15.515-6.935 15.515-15.515s-6.935-15.515-15.515-15.515zM462.274 308.364h-15.515c-8.58 0-15.515 6.935-15.515 15.515s6.935 15.515 15.515 15.515h15.515c8.58 0 15.515-6.935 15.515-15.515s-6.935-15.515-15.515-15.515zM555.365 308.364h-15.515c-8.58 0-15.515 6.935-15.515 15.515s6.935 15.515 15.515 15.515h15.515c8.58 0 15.515-6.935 15.515-15.515s-6.935-15.515-15.515-15.515zM663.971 308.364h-15.515c-8.58 0-15.515 6.935-15.515 15.515s6.935 15.515 15.515 15.515h15.515c8.58 0 15.515-6.935 15.515-15.515s-6.935-15.515-15.515-15.515zM772.577 308.364h-15.515c-8.58 0-15.515 6.935-15.515 15.515s6.935 15.515 15.515 15.515h15.515c8.58 0 15.515-6.935 15.515-15.515s-6.935-15.515-15.515-15.515zM245.062 122.182h-15.515c-8.58 0-15.515 6.935-15.515 15.515s6.935 15.515 15.515 15.515h15.515c8.58 0 15.515-6.935 15.515-15.515s-6.935-15.515-15.515-15.515zM353.668 122.182h-15.515c-8.58 0-15.515 6.935-15.515 15.515s6.935 15.515 15.515 15.515h15.515c8.58 0 15.515-6.935 15.515-15.515s-6.935-15.515-15.515-15.515zM462.274 122.182h-15.515c-8.58 0-15.515 6.935-15.515 15.515s6.935 15.515 15.515 15.515h15.515c8.58 0 15.515-6.935 15.515-15.515s-6.935-15.515-15.515-15.515zM555.365 122.182h-15.515c-8.58 0-15.515 6.935-15.515 15.515s6.935 15.515 15.515 15.515h15.515c8.58 0 15.515-6.935 15.515-15.515s-6.935-15.515-15.515-15.515zM245.062 215.273h-15.515c-8.58 0-15.515 6.935-15.515 15.515s6.935 15.515 15.515 15.515h15.515c8.58 0 15.515-6.935 15.515-15.515s-6.935-15.515-15.515-15.515zM353.668 215.273h-15.515c-8.58 0-15.515 6.935-15.515 15.515s6.935 15.515 15.515 15.515h15.515c8.58 0 15.515-6.935 15.515-15.515s-6.935-15.515-15.515-15.515zM462.274 215.273h-15.515c-8.58 0-15.515 6.935-15.515 15.515s6.935 15.515 15.515 15.515h15.515c8.58 0 15.515-6.935 15.515-15.515s-6.935-15.515-15.515-15.515zM555.365 215.273h-15.515c-8.58 0-15.515 6.935-15.515 15.515s6.935 15.515 15.515 15.515h15.515c8.58 0 15.515-6.935 15.515-15.515s-6.935-15.515-15.515-15.515zM663.971 215.273h-15.515c-8.58 0-15.515 6.935-15.515 15.515s6.935 15.515 15.515 15.515h15.515c8.58 0 15.515-6.935 15.515-15.515s-6.935-15.515-15.515-15.515zM772.577 215.273h-15.515c-8.58 0-15.515 6.935-15.515 15.515s6.935 15.515 15.515 15.515h15.515c8.58 0 15.515-6.935 15.515-15.515s-6.935-15.515-15.515-15.515zM232.727 665.212c-17.129 0-31.030 13.902-31.030 31.030v232.727c0 17.129 13.902 31.030 31.030 31.030s31.030-13.902 31.030-31.030v-232.727c0-17.144-13.902-31.030-31.030-31.030zM775.758 665.212c-17.129 0-31.030 13.902-31.030 31.030v232.727c0 17.129 13.902 31.030 31.030 31.030s31.030-13.902 31.030-31.030v-232.727c0-17.144-13.902-31.030-31.030-31.030zM974.274 541.091h-930.909c-8.58 0-15.515 6.935-15.515 15.515s6.935 15.515 15.515 15.515h930.909c8.58 0 15.515-6.935 15.515-15.515s-6.935-15.515-15.515-15.515z" />
<glyph unicode="&#xe608;" glyph-name="more10" d="M232.726 448c0-64.265-52.097-116.363-116.363-116.363s-116.363 52.097-116.363 116.363c0 64.265 52.097 116.363 116.363 116.363s116.363-52.097 116.363-116.363zM628.363 448c0-64.265-52.097-116.363-116.363-116.363s-116.363 52.097-116.363 116.363c0 64.265 52.097 116.363 116.363 116.363s116.363-52.097 116.363-116.363zM1024 448c0-64.265-52.097-116.363-116.363-116.363s-116.363 52.097-116.363 116.363c0 64.265 52.097 116.363 116.363 116.363s116.363-52.097 116.363-116.363z" />
<glyph unicode="&#xe609;" glyph-name="notifications" d="M512-64c56.32 0 102.4 46.080 102.4 102.4h-204.8c0-56.32 46.080-102.4 102.4-102.4zM844.8 243.2v281.6c0 158.72-107.52 286.72-256 322.56v35.84c0 40.96-35.84 76.8-76.8 76.8s-76.8-35.84-76.8-76.8v-35.84c-148.48-35.84-256-163.84-256-322.56v-281.6l-102.4-102.4v-51.2h870.4v51.2l-102.4 102.4z" />
<glyph unicode="&#xe60a;" glyph-name="padlock71" d="M861.155 610.756h-72.942v151.101c0 109.257-88.886 198.143-198.143 198.143h-156.136c-109.257 0-198.143-88.886-198.143-198.143v-151.101h-72.942c-20.522 0-37.156-16.634-37.156-37.156v-362.927c0-151.457 123.219-274.673 274.676-274.673h223.264c151.457 0 274.676 123.219 274.676 274.673v362.927c0.003 20.522-16.631 37.156-37.153 37.156zM310.105 761.857c0 68.281 55.55 123.831 123.831 123.831h156.139c68.281 0 123.828-55.55 123.828-123.831v-151.101h-403.798v151.101zM823.999 210.673c0-110.479-89.882-200.361-200.361-200.361h-223.267c-110.479 0-200.364 89.882-200.364 200.361v325.77h623.992v-325.77zM474.847 133.671c0-20.522 16.634-37.156 37.156-37.156 20.519 0 37.156 16.634 37.156 37.156v106.085c4.42 6.117 7.060 13.608 7.060 21.732 0 20.519-16.637 37.156-37.156 37.156h-14.119c-20.519 0-37.156-16.637-37.156-37.156 0-8.121 2.637-15.615 7.060-21.732v-106.085z" />
<glyph unicode="&#xe60b;" glyph-name="profile7" d="M512 256c158.816 0 288 157.952 288 352s-129.216 352-288 352c-78.304 0-151.488-37.568-206.016-105.76-52.896-66.080-81.984-153.568-81.984-246.272 0-194.016 129.184-351.968 288-351.968zM512 895.968c123.488 0 224-129.184 224-288 0-158.784-100.512-288-224-288s-224 129.216-224.032 288c0 158.816 100.512 288 224.032 288zM736 320c-17.696 0-32-14.304-32-32s14.304-32 32-32c123.488 0 224-100.512 224-224 0-17.632-14.368-32-32-32h-832c-17.632 0-32 14.368-32 32 0 123.488 100.512 224 224 224 17.696 0 32 14.304 32 32s-14.304 32-32 32c-158.816 0-288-129.184-288-288 0-52.928 43.072-96 96-96h832c52.928 0 96 43.072 96 96 0 158.784-129.184 288-288 288z" />
<glyph unicode="&#xe60c;" glyph-name="sun93" d="M670.723 707.151l85.127 85.137c10.020 10.041 10.511 27.026-1.004 38.562-10.021 9.935-28.33 10.789-39.055 0l-84.123-85.137c-10.724-10.896-11.514-27.026 0-38.563 11.514-11.534 27.537-11.534 39.055 0.002zM442.902 784.704c15.52 0 28.040 12.605 28.040 28.094v119.643c0 15.595-12.519 27.559-28.040 27.559s-27.539-11.964-27.539-27.559v-119.641c-0.010-15.49 12.007-28.095 27.539-28.095zM216.566 707.151c11.591-11.429 27.935-11.857 39.055 0 10.426 11.109 10.020 28.522 0 38.563l-85.126 85.137c-10.020 9.935-27.539 9.935-39.055 0-11.516-12.070-11.354-28.415 0-39.631l85.126-84.070zM29.798 490.302l120.176 1.496c15.522 0.213 27.539 12.070 27.539 27.561 0 15.489-12.017 27.559-27.539 27.559h-120.176c-15.52-1.496-27.539-13.032-27.539-28.522 0-14.527 12.019-28.307 27.539-28.094zM990.689 304.111c-20.531 37.496-48.070 67.512-83.119 90.052-8.514 63.667-34.204 117.506-76.612 162.264-49.728 52.449-117.174 81.613-188.777 81.613h-20.531c-19.528 29.055-45.56 52.13-77.115 69.114-31.545 16.985-65.098 25.532-101.652 25.532-59.083 0-109.781-20.937-151.72-62.599-41.682-41.447-62.588-91.654-62.588-150.727 0-22.54 10.020-56.616 30.039-102.655-28.544-23.501-49.075-54.052-60.59-91.119h-11.494c-50.569 0-94.131-19.015-130.184-57.044-36.053-38.135-54.084-84.175-54.084-137.694 0-48.068 14.762-89.943 44.064-126.264 29.793-36.853 67.064-59.179 112.667-66.549 10.49-1.709 19.025-2.031 24.537-2.031h610.39c13.523 0 24.536 1.068 32.548 2.99 56.083 8.013 102.967 35.785 140.697 83.215 36.373 45.613 54.575 99.132 54.575 159.699-0.012 43.581-10.523 84.601-31.052 122.203zM331.241 630.987c30.924 30.764 68.1 46.148 111.662 46.148 46.564 0 86.12-17.091 118.167-51.060-78.611-26.6-141.7-90.158-170.243-172.306-10.511 1.496-19.025 2.029-24.537 2.029-21.535 0-42.066-4.060-62.588-12.497-12.52 22.538-18.524 47.535-18.524 76.057-0.010 43.582 15.394 81.291 46.063 111.629zM923.592 56.176c-28.544-35.572-64.095-56.509-107.153-63.026-4.006-1.494-11.516-2.031-22.528-2.031h-610.385c-4.006 0-11.516 0.961-15.021 0.961-31.545 5.022-57.588 20.509-79.112 47.109-21.535 26.491-32.047 57.042-32.047 91.654 0 38.563 12.38 71.678 37.559 98.597 25.403 27.133 56.083 40.592 91.632 40.592 21.535 0 41.565-5.022 60.59-15.595-0.501 3.525-1.004 8.546-1.004 15.595 0 35.572 11.516 66.122 35.048 91.654 23.533 25.53 51.573 38.562 85.127 38.562 23.031 0 44.064-6.515 63.592-19.548 6.505 57.044 29.665 105.007 70.097 143.677 40.689 38.883 87.628 58.54 142.201 58.54 57.588 0 107.154-22.005 148.218-65.589 41.062-43.477 62.586-96.14 64.093-158.205 33.554-13.993 60.087-37.067 80.618-69.114s31.044-68.046 31.044-108.104c-0.013-48.603-14.028-90.158-42.571-125.73z" />
</font></defs></svg>